…
```r
iris <- iris %>% as_tibble() # much better :)

# Print iris and select "Sepal.Length"
iris %>% select(Sepal.Length)
```

```
## # A tibble: 150 x 1
##    Sepal.Length
##           <dbl>
##  1          5.1
##  2          4.9
##  3          4.7
##  4          4.6
##  5          5  
##  6          5.4
##  7          4.6
##  8          5  
##  9          4.4
## 10          4.9
## # ... with 140 more rows
```
Notice the `%>%` symbol, this is known as a pipe. You can think of it as "piping" the output of one command into another command. By structuring your code this way, it becomes closer to natural language!

The tibble and the `%>%` are two examples of how Tidyverse tools and packages use the principles:

(1) Compos simple functions with the pipe
(2) Designed for humans

This code block could be read as, "Print the iris object then select the Sepal.Length column"

```r
iris %>% select(Sepal.Length)
```

```
## # A tibble: 150 x 1
##    Sepal.Length
##           <dbl>
##  1          5.1
##  2          4.9
##  3          4.7
##  4          4.6
##  5          5  
##  6          5.4
##  7          4.6
##  8          5  
##  9          4.4
## 10          4.9
## # ... with 140 more rows
```
…
### Filter()
This verb allows you so subset rows of your data.


```r
# Print iris and filter for rows where Sepal.Length is greater than 5.4
iris_long_sepels <- iris %>% filter(Sepal.Length > 5.4)

# Print both of these data frames and take notice of the reduction in dimensions
iris
```

```
## # A tibble: 150 x 5
##    Sepal.Length Sepal.Width Petal.Length Petal.Width Species
##           <dbl>       <dbl>        <dbl>       <dbl> <fct>  
##  1          5.1         3.5          1.4         0.2 setosa 
##  2          4.9         3            1.4         0.2 setosa 
##  3          4.7         3.2          1.3         0.2 setosa 
##  4          4.6         3.1          1.5         0.2 setosa 
##  5          5           3.6          1.4         0.2 setosa 
##  6          5.4         3.9          1.7         0.4 setosa 
##  7          4.6         3.4          1.4         0.3 setosa 
##  8          5           3.4          1.5         0.2 setosa 
##  9          4.4         2.9          1.4         0.2 setosa 
## 10          4.9         3.1          1.5         0.1 setosa 
## # ... with 140 more rows
```

```r
iris_long_sepels
```

```
## # A tibble: 98 x 5
##    Sepal.Length Sepal.Width Petal.Length Petal.Width Species   
##           <dbl>       <dbl>        <dbl>       <dbl> <fct>     
##  1          5.8         4            1.2         0.2 setosa    
##  2          5.7         4.4          1.5         0.4 setosa    
##  3          5.7         3.8          1.7         0.3 setosa    
##  4          5.5         4.2          1.4         0.2 setosa    
##  5          5.5         3.5          1.3         0.2 setosa    
##  6          7           3.2          4.7         1.4 versicolor
##  7          6.4         3.2          4.5         1.5 versicolor
##  8          6.9         3.1          4.9         1.5 versicolor
##  9          5.5         2.3          4           1.3 versicolor
## 10          6.5         2.8          4.6         1.5 versicolor
## # ... with 88 more rows
```

```r
# Print iris and filter for rows where the species is setosa
iris %>% filter(Species == "setosa")
```

```
## # A tibble: 50 x 5
##    Sepal.Length Sepal.Width Petal.Length Petal.Width Species
##           <dbl>       <dbl>        <dbl>       <dbl> <fct>  
##  1          5.1         3.5          1.4         0.2 setosa 
##  2          4.9         3            1.4         0.2 setosa 
##  3          4.7         3.2          1.3         0.2 setosa 
##  4          4.6         3.1          1.5         0.2 setosa 
##  5          5           3.6          1.4         0.2 setosa 
##  6          5.4         3.9          1.7         0.4 setosa 
##  7          4.6         3.4          1.4         0.3 setosa 
##  8          5           3.4          1.5         0.2 setosa 
##  9          4.4         2.9          1.4         0.2 setosa 
## 10          4.9         3.1          1.5         0.1 setosa 
## # ... with 40 more rows
```


### Arrange()

This verb allows you to order your data by value or alphabetically


```r
# Print iris and arrange the rows from smalled to longest Sepal.Length
iris %>% arrange(Sepal.Length)
```

```
## # A tibble: 150 x 5
##    Sepal.Length Sepal.Width Petal.Length Petal.Width Species
##           <dbl>       <dbl>        <dbl>       <dbl> <fct>  
##  1          4.3         3            1.1         0.1 setosa 
##  2          4.4         2.9          1.4         0.2 setosa 
##  3          4.4         3            1.3         0.2 setosa 
##  4          4.4         3.2          1.3         0.2 setosa 
##  5          4.5         2.3          1.3         0.3 setosa 
##  6          4.6         3.1          1.5         0.2 setosa 
##  7          4.6         3.4          1.4         0.3 setosa 
##  8          4.6         3.6          1           0.2 setosa 
##  9          4.6         3.2          1.4         0.2 setosa 
## 10          4.7         3.2          1.3         0.2 setosa 
## # ... with 140 more rows
```

```r
# How about descending order!?
iris %>% arrange(desc(Sepal.Length))
```

```
## # A tibble: 150 x 5
##    Sepal.Length Sepal.Width Petal.Length Petal.Width Species  
##           <dbl>       <dbl>        <dbl>       <dbl> <fct>    
##  1          7.9         3.8          6.4         2   virginica
##  2          7.7         3.8          6.7         2.2 virginica
##  3          7.7         2.6          6.9         2.3 virginica
##  4          7.7         2.8          6.7         2   virginica
##  5          7.7         3            6.1         2.3 virginica
##  6          7.6         3            6.6         2.1 virginica
##  7          7.4         2.8          6.1         1.9 virginica
##  8          7.3         2.9          6.3         1.8 virginica
##  9          7.2         3.6          6.1         2.5 virginica
## 10          7.2         3.2          6           1.8 virginica
## # ... with 140 more rows
```
…
### Rename()

This allows you to rename columns in your data frame


```r
iris_renamed <- iris %>% rename(new_name = Sepal.Length)

# Check it out!
iris_renamed
```

```
## # A tibble: 150 x 5
##    new_name Sepal.Width Petal.Length Petal.Width Species
##       <dbl>       <dbl>        <dbl>       <dbl> <fct>  
##  1      5.1         3.5          1.4         0.2 setosa 
##  2      4.9         3            1.4         0.2 setosa 
##  3      4.7         3.2          1.3         0.2 setosa 
##  4      4.6         3.1          1.5         0.2 setosa 
##  5      5           3.6          1.4         0.2 setosa 
##  6      5.4         3.9          1.7         0.4 setosa 
##  7      4.6         3.4          1.4         0.3 setosa 
##  8      5           3.4          1.5         0.2 setosa 
##  9      4.4         2.9          1.4         0.2 setosa 
## 10      4.9         3.1          1.5         0.1 setosa 
## # ... with 140 more rows
```


### Mutate()

This verb allows you to add new columns to your data frame 

Let's suppose that the ratio between `Sepal.Length` and `Petal.Length` is important for your study. You can add a column with this ratio by doing this:

```r
iris %>% mutate(sep_to_ped_ratio = Sepal.Length/Petal.Length)
```

```
## # A tibble: 150 x 6
##    Sepal.Length Sepal.Width Petal.Length Petal.Width Species sep_to_ped_ratio
##           <dbl>       <dbl>        <dbl>       <dbl> <fct>              <dbl>
##  1          5.1         3.5          1.4         0.2 setosa              3.64
##  2          4.9         3            1.4         0.2 setosa              3.5 
##  3          4.7         3.2          1.3         0.2 setosa              3.62
##  4          4.6         3.1          1.5         0.2 setosa              3.07
##  5          5           3.6          1.4         0.2 setosa              3.57
##  6          5.4         3.9          1.7         0.4 setosa              3.18
##  7          4.6         3.4          1.4         0.3 setosa              3.29
##  8          5           3.4          1.5         0.2 setosa              3.33
##  9          4.4         2.9          1.4         0.2 setosa              3.14
## 10          4.9         3.1          1.5         0.1 setosa              3.27
## # ... with 140 more rows
```
…
